{
    "puzzle": [
        ["-", "-", "-", "-", "-", "-", "-"],
        ["-", "-", "1", "1", "-", "-", "-"],
        ["-", "-", "-", "-", "-", "3", "-"],
        ["-", "0", "-", "#", "-", "1", "-"],
        ["-", "#", "-", "-", "-", "-", "-"],
        ["-", "-", "-", "#", "1", "-", "-"],
        ["-", "-", "-", "-", "-", "-", "-"]
    ]
}